{
  "address": "D436EC9FA862E09F6F10945C9D7178F3FE4930A0",
  "pub_key": {
    "type": "tendermint/PubKeyEd25519",
    "value": "IRKZQDtXazl22Pb7Wwvj8S2U4bQIZ0tjytkhUF/ADXI="
  },
  "priv_key": {
    "type": "tendermint/PrivKeyEd25519",
    "value": "BeuPahuSiRaBAnCeWt5zmMZUf7XqBlGcWZR+5ZAlkjQhEplAO1drOXbY9vtbC+PxLZThtAhnS2PK2SFQX8ANcg=="
  }
}